module gitlab.com/bitify-pub/gomssql

go 1.22.4

require (
	github.com/denisenkom/go-mssqldb v0.12.3
	github.com/go-sql-driver/mysql v1.8.1
	github.com/thatisuday/commando v1.0.4
)

require (
	filippo.io/edwards25519 v1.1.0 // indirect
	github.com/GeertJohan/yubigo v0.0.0-20190917122436-175bc097e60e // indirect
	github.com/anvie/port-scanner v0.0.0-20180225151059-8159197d3770 // indirect
	github.com/beevik/ntp v1.3.1 // indirect
	github.com/c-robinson/iplib v1.0.3 // indirect
	github.com/fatih/color v1.13.0 // indirect
	github.com/golang-sql/civil v0.0.0-20190719163853-cb61b32ac6fe // indirect
	github.com/golang-sql/sqlexp v0.1.0 // indirect
	github.com/jackpal/gateway v1.0.7 // indirect
	github.com/lib/pq v1.10.9 // indirect
	github.com/matishsiao/goInfo v0.0.0-20210923090445-da2e3fa8d45f // indirect
	github.com/mattn/go-colorable v0.1.11 // indirect
	github.com/mattn/go-isatty v0.0.14 // indirect
	github.com/mitchellh/go-homedir v1.1.0 // indirect
	github.com/mitchellh/go-ps v1.0.0 // indirect
	github.com/redcode-labs/Coldfire v0.0.0-20240331230914-07d7928002d6 // indirect
	github.com/savaki/jq v0.0.0-20161209013833-0e6baecebbf8 // indirect
	github.com/thatisuday/clapper v1.0.10 // indirect
	github.com/yalue/elf_reader v1.0.0 // indirect
	github.com/ztrue/tracerr v0.4.0 // indirect
	golang.org/x/crypto v0.20.0 // indirect
	golang.org/x/net v0.21.0 // indirect
	golang.org/x/sys v0.17.0 // indirect
)
